{
    "inputMessageMetadata": {
        "messagePayload": {
            "connectorName": "#_custom_mule_metadata_type_#",
            "typeId": "database"
        }
    },
    "outputMessageMetadata": {
        "messagePayload": {
            "connectorName": "#_custom_mule_metadata_type_#",
            "typeId": "database"
        }
    },
    "id": "70e810d3-15ed-41dc-bad0-b47dfd51efeb",
    "version": "5.2.0.0"
}